{
    "name": "UserControl",
    "maps": [
        {
            "name": "Player",
            "id": "9f6c0e03-a500-467c-b7ac-4611f8c78514",
            "actions": [
                {
                    "name": "Movement",
                    "type": "Value",
                    "id": "fcfa9b64-7a3b-4960-84c6-42b53640ad8a",
                    "expectedControlType": "Vector2",
                    "processors": "",
                    "interactions": "",
                    "initialStateCheck": true
                }
            ],
            "bindings": [
                {
                    "name": "2D Vector",
                    "id": "5f4fe645-48ae-40db-8b0a-f789613a8009",
                    "path": "2DVector",
                    "interactions": "",
                    "processors": "",
                    "groups": "",
                    "action": "Movement",
                    "isComposite": true,
                    "isPartOfComposite": false
                },
                {
                    "name": "up",
                    "id": "dcb5045f-4ef5-4749-ad8a-fff2d74722b8",
                    "path": "<Keyboard>/w",
                    "interactions": "",
                    "processors": "",
                    "groups": "",
                    "action": "Movement",
                    "isComposite": false,
                    "isPartOfComposite": true
                },
                {
                    "name": "down",
                    "id": "f63ea995-1cc8-474b-b0f6-a4cc0ba1d908",
                    "path": "<Keyboard>/s",
                    "interactions": "",
                    "processors": "",
                    "groups": "",
                    "action": "Movement",
                    "isComposite": false,
                    "isPartOfComposite": true
                },
                {
                    "name": "left",
                    "id": "309cf355-a233-4995-88e8-3481454eaaf6",
                    "path": "<Keyboard>/a",
                    "interactions": "",
                    "processors": "",
                    "groups": "",
                    "action": "Movement",
                    "isComposite": false,
                    "isPartOfComposite": true
                },
                {
                    "name": "right",
                    "id": "89b41c10-ddc5-4e13-80e1-d0f4ff06c468",
                    "path": "<Keyboard>/d",
                    "interactions": "",
                    "processors": "",
                    "groups": "",
                    "action": "Movement",
                    "isComposite": false,
                    "isPartOfComposite": true
                }
            ]
        }
    ],
    "controlSchemes": []
}